First Name,Last Name,Gitlab Handle,Week 2 Repo Link,Slack Location Channel,Week 5 Repo Link,,,,,
Yusuff, Bello-Oso,,https://gitlab.com/jibolaosh/savanna-animals.git,Athens,,,,,,
Onyeka,Ijeh,OnyekaIjeh,https://gitlab.com/OnyekaIjeh/booust-week-two,Sparta,,,,,,
victor,obije,obije,https://gitlab.com/Obije/2ilabs.git,,,,,,,
Temitayo,Adenmosun,temitayo,https://gitlab.com/temitayo/check-animals,Athens,,,,,,
Ochuko,Ekrresa,ochuko56,https://gitlab.com/ochuko56/cat-family.git,Athens,https://gitlab.com/ochuko56/week-five.git,,,,,
Princewill,Okeugo,@PcUtility,https://gitlab.com/PcUtility/week2exercise.git,Sparta,,,,,,
Patrick,Manirakiza,1000Hills,https://gitlab.com/1000Hills/WeekTwo.git,Sparta,,,,,,
Nzubechukwu,Ifechukwu,@nzube.ifechukwu,https://gitlab.com/nzube.ifechukwu/booust-week2-animalsList,,,,,,,
Okemmadu,Eric,@EngrEric,https://gitlab.com/EngrEric/first_assessment.git,Sparta,,,,,,
Olushola,Abiodun,Eshjay,Week 2 Repo Link,Sparta,,,,,,
Segun,Ajala,ajalasegun11,https://gitlab.com/ajalasegun11/HomeStudy,Sparta,,,,,,
Olajuwon, Owoseni, Henrola,,Sparta,,,,,,
Michael,Olamikan,mikeolam1,https://gitlab.com/mikeolam1/BooustProject.git,Sparta,,,,,,
Tayo,Adinlewa,mTayo,https://gitlab.com/mTayo/myAssignment.git,Athens,,,,,,
Mercy, Ikpe, @ikpemercy, https://gitlab.com/ikpemercy1/booust-week2-exercise,Sparta,,,,,,
Gregory,Otiono,sir.gregg,https://gitlab.com/sir.gregg/booust-week-two-assignment,Athens,https://gitlab.com/sir.gregg/booust-week-five.git,,,,,
Ismail, Muhammed, https://gitlab.com/ismail_muhammed, https://gitlab.com/ismail_muhammed/weekTwoProject.git,Athens,,,,,,
Olushola,Abiodun,Eshjay,https://gitlab.com/Eshjay/My-animal-names-project.git,Sparta,,,,,,
Ebi-erefa,Apollos,doyinapollos,https://gitlab.com/doyinapollos/apollosebi.git,Sparta,,,,,,
Olasumbo,Olanubi,@Sumboty,https://gitlab.com/Sumboty/my-booust-project.git,Sparta,https://gitlab.com/Sumboty/MarekFilms.git,,,,,
Timilehin,Micheal,https://gitlab.com/timmy471/last_booust,https://gitlab.com/timmy471/last_booust.git,,,,,,,
Oluwaseyi, Adaramola,  https://gitlab.com/S.YNoble, https://gitlab.com/S.YNoble/assignment.git,,,,,,,
Alaba,Talabi,EngracedTeehay,https://gitlab.com/EngracedTeehay/Zoomania.git,,,,,,,
Oluwakorede,Ogidan,coreyday,https://gitlab.com/coreyday/booustproject,,,,,,,
Ifeanyi,Okoye,ifeanyi,https://gitlab.com/ifeanyi/booust_internship,,,,,,,
Joshua, Eyenike, https://gitlab.com/joshuaeyenike, https://gitlab.com/joshuaeyenike/code-assignment-week-two.git,,,,,,,
Oluwatosin,Akande,tosinakande,https://gitlab.com/tosinakande/Booust-project.git,,,,,,,
Ikechukwu,Emordi, @ik_p,https://gitlab.com/ik_p/index.git,,,,,,,
Pamela,Agbakoba,@desirable1,https://gitlab.com/desirable1/PamProject.git,https://gitlab.com/desirable1/AlphaStores.git,,,,,,
Sulaiman,Idris,ayoeedris,https://gitlab.com/ayoeedris/firstproject.git,https://gitlab.com/ayoeedris/weekfive.git,,,,,,
Babajide,Timson,timson.babajide,git@gitlab.com:timson.babajide/Week2-BooustProject.git,,,,,,,
NASRULLAH,ONI,ROLDRE,https://gitlab.com/ROLDRE/BOOUST-INTERNSHIP,,,,,,,
Somtochukwu, Dibie, somtodb, https://gitlab.com/somtodb/guessAnimal.git,,,,,,,
Joye,Shonubi,Oladunjoye,https://gitlab.com/Oladunjoye/GuessingGame.git,,,,,",",https://gitlab.com/Oladunjoye/GuessingGame.git,
Chinechetam,Okafor,@chetam,https://gitlab.com/chetam/wk2.git,,,,,,,
Joshua, Eyenike, @eyenike, https://gitlab.com/eyenike/animals-list-game.git,,,,,,,
Mary,Iribiri, @OnomeMary,https://gitlab.com/OnomeMary/HomeStudyExercise.git,Athens,https://gitlab.com/OnomeMary/films-rental-services.git,,,,,
Glory,Emmanuel,GloryPraise,https://gitlab.com/GloryPraise/game.gitlab,,,,,,,
olukayodeosisami,,osisamkayhttps://gitlab.com/osisamkay007/booust-assignment.git,,,,,,,,
Naimat,Oyewale, Naimahtech, https://gitlab.com/Naimahtech/BooustAssignment1,,,,,,,
Francisca, Adekanye, https://gitlab.com/francisca_kanye, git@gitlab.com:francisca_kanye/animal.git,,,,,,,
Idongesit ,Brown,iBrown1,https://gitlab.com/iBrown1/AscendingProject.git,,,,,,,
Odey,John, jonddon, https://gitlab.com/jonddon/guessGame.git,Athens,http://filmpalace2.herokuapp.com,,,,,
Osinloye,Samuel,Samspecial,https://gitlab.com/Samspecial/assignment.git,,,,,,,
Olufemi,Aremu,olufemi,https://gitlab.com/femiaremu88/Jojo_Farms,,,,,,,
Awoseemo,Akinlolu,akeens4,https://gitlab.com/akeens4/Akin-booust.git,,,,,,,
James,Emovon,@AlexisJaymie,https://gitlab.com/AlexisJaymie/Animal-List-HomeStudy.git,,,,,,,
Brume, Love, brumelove,  https://gitlab.com/brumelove/booust.git,,,,,,,
Augustine Ochigbo,Emmanuel,aus7yne,https://gitlab.com/aus7yne/assignment-animal-guesser.git,git@gitlab.com:aus7yne/biofilms-week5.git,git@gitlab.com:aus7yne/HomeStudy.git,,,,,,
Nathanael,Bakare,nathyjegs,https://gitlab.com/nathyjegs/Project-Booust.git,,,,,,,
David,Daniel,@dandave,https://gitlab.com/dandave/animalsearch.git,,,,,,,
olalekan,sarafa,https://gitlab.com/musharaf1,https://gitlab.com/musharaf1/week2.git,,,,,,,
Chinedu, Nelson, https://gitlab.com/CodeBurst, https://gitlab.com/CodeBurst/First-Homestudy-Project,,,,,,,
Chigoziem,Nwaiwu,https://gitlab.com/mindsworth,https://gitlab.com/mindsworth/booust-animal-animal.git,,,,,,,
Olabayonle,Olubode,bhordemarz,https://gitlab.com/bhordemarz/animal_list.git,,,,,,,
Fatima, OLASUNKANMI-OJO ,Fatima-Ola,https://gitlab.com/Fatima-Ola/booust.git,,,,,,,
Joshua,Adekuoroye, @femiade,https://gitlab.com/femiade/my-booust-project.git,,,,,,,
Charles,Adah,charlay,https://gitlab.com/charlay/awesome.git,,,,,,,
Oluwafemi,Akerele,oluwafemi,https://gitlab.com/Oluwafemmy/HomeStudy.git,,,,,,,
Chukwuemeka, Okoroafor, @1Rico, https://gitlab.com/1Rico/week-two-project.git,Sparta,https://git.heroku.com/rico-movie-rental.git,,,,,
Oluwatomiloba,Arotiba,TomiArotiba,https://gitlab.com/TomiArotiba/BooustProject.git,,,,,,,
Ganiu, Elegbede, https://gitlab.com/omoelyon/adeolabooust.git,https://gitlab.com/omoelyon/week5rental.git,,,,,,,
Idjighere ,Oghenerukevwe sandra, https://gitlab.com/oghenerukevwe, https://gitlab.com/oghenerukevwe/animalWebApp.git, https://gitlab.com/oghenerukevwe/week5project.git,,,,,,
Daniel,Chukwurah, nonsoo24,https://gitlab.com/Nonsoo24/Dan-Film-Rentals.git  (Week 5 Assignment),,,,,,,
Nkechi,Anurukem, @cassyvee,https://gitlab.com/cassyvee/HomeStudy.git,,,,,,,
Abeeb,Alabi,Mrbreezie,https://gitlab.com/Mrbreezie/Week-two-assignment.git,,,,,,,
Adegbola, Adeniyi, @niyexdroid, https://gitlab.com/niyexdroid/booust-project.git, https://gitlab.com:niyexdroid/week-5-project.git,,,,,,
Oluwadamilola,Ige,ace_IG, https://gitlab.com/ace_IG/My-homestudy.git,,,,,,,
ekpoto, matthew, https://gitlab.com/ematthew/week2.git,,,,,,,,
Naimat, Oyewale, Naimahtech, https://gitlab.com/Naimahtech/BooustAssignment1,,,,,,,
okoduwa,paul,@paulokoduwa,git@gitlab.com:paulokoduwa/boost_project.git,,,,,,,
Oluwaseyi,Boya,@sei4qurah,https://gitlab.com/sei4qurah/animal-kingdom.git,https://gitlab.com/sei4qurah/Zehero_films.git,,,,,,
Brume, Love, brumelove,https://gitlab.com/brumelove/booust.git ,,,,,,,
Ayo-Oluwa,Adebayo,uniqueayo1988,https://gitlab.com/uniqueayo1988/animal-kingdom.git,,,,,,,
Obisanya,Babatunde,@tundesanya,https://gitlab.com/tundesanya/firstProject.git,,,,,,,
Obisanya,Babatunde,@tundesanya,https://gitlab.com/tundesanya/firstProject.git,,,,,,,
Onu,Chukwudi,  @onuchukwudi,git@gitlab.com:weektwoassignment/WeekTwoAss.git,,,,,,,
Jeremiah,Babasanmi,Gbomaya,https://gitlab.com/Gbomaya/booust-project.git,,,,,,,
Timothy,Mayor, @tmayor,https://gitlab.com/tmayor/booustassignment.git,https://gitlab.com/tmayor/weekfive,,,,,,
Takuro,Gbemisola,@michelletakuro,https://gitlab.com/mitchelletakuro/Animal-petting-zoo.git,,,,,,,
IfeOluwa,Ojewande,Ifeoluwa_oj,https://gitlab.com/Ifeoluwa_oj/myBoustProject.git,,,,,,,
Tomiwa,Salau,tomiwa_salau,https://gitlab.com/tomiwa_salau/MyFirstRemoteRepo.git,,,,,,,
Alabi,Sodiq, adisco4420, https://gitlab.com/adisco4420/week2,Sparta,http://booustweekfive.herokuapp.com/index.html,,,,,
uchechukwu,nwulu,uchedotphp,https://gitlab.com/uchedotphp/Booust-Week-Two-Exercise.git,Athens,https://gitlab.com/uchedotphp/Booust-Week-Five-Exercise.git,,,,,
Fredrick,Okereke,@kellyonline2016,git@gitlab.com:kellyonline2016/Booust-project.git,,,,,,,
Daberechi,Nwabueze,dabbynwa,git@gitlab.com:dabbynwa/jungle.git,,,,,,,
David  Solola,Oluwakayode, @davinstinct, https://gitlab.com/booustDavinstinct/HomeStudy.git,,,,,,,
Alexandrix,Ikechukwu,@SpaghettiThots,https://gitlab.com/SpaghettiThots/booust_diary.git,,,,,,,
Precious,Arinze, https://gitlab.com/PreciousArinze, https://gitlab.com/PreciousArinze/Bouust-Programme.git ,,,,,,,
IREBO,DONALD, @don_c, https://gitlab.com/don_c/animal_booust.git,,,,,,,
Divinelove,Chukwuemeka,https://gitlab.com/divCode77,https://gitlab.com/divCode77/booust-assignment,,,,,,,
Olalekan,Olonilua,lecxis106,git@gitlab.com:lecxis106/Booust-task.git,,,,,,,
Owolabi,Muritala,lawon007,https://gitlab.com/lawon007/list.git,,,,,,,
Agboluaje,Aishat,amazonaesh,https://gitlab.com/amazonaesh/week-two-assignment.git,,,,,,,
omosehin ,bayo,https://gitlab.com/Omosehin/bayobooust.git,Athens,,,,,,,
Ali,Joseph,alijoseph,https://gitlab.com/alijoseph/MY-FILM-PROJECT.git,,,,,,,
ONI,NASRULLAH,Roldre,https://gitlab.com/ROLDRE/Booust-Week5.git,,,,,,,
Fredrick,Okereke,@kellyonline2016,git@gitlab.com:kellyonline2016/Week-Five.git,Sparta,,,,,,
Agboluaje,Aishat,amazonaesh,https://gitlab.com/amazonaesh/week-two-assignment.git,tajmovies.herokuapp.com,,,,,,
Jeremiah,Babasanmi,Gbomaya,https://gitlab.com/Gbomaya/booust-project.git,,,,,,,https://gitlab.com/Gbomaya/week-five.git
Takuro,Gbemisola,@michelletakuro,https://gitlab.com/mitchelletakuro/movierentals.git,,,,,,,
Akinyemi Odunitan, Richard, @RichieRich64, https://gitlab.com/RichieRich64/RichProject.git, https://gitlab.com/RichieRich64/radfilmrentalz.git,,,,,,
Oluwafemi,Awojana,FemiGitLab,https://gitlab.com/FemiGitlab/booustInternshipWeek5.git,,,,,,,
Nathanael,Bakare,nathyjegs,https://gitlab.com/nathyjegs/week-five.git,Athens,,,,,,
Unegbu,kingsley,Urchmaney,https://gitlab.com/Urchmaney/MyHomeStudy,,,,https://weekkfive-live-app.herokuapp.com/Home.html,,,
Marshall,Akpan,uimarshall,https://gitlab.com/uimarshall/BooustProjMine,, https://calm-headland-13563.herokuapp.com/index.html(week 5 heroku link),,,,,
Usman,Taiwo,Zaynabb,https://gitlab.com/Zaynabb/HomeStudy.git,,,,,https://reelrentals.herokuapp.com,,
Sodiq,Akinjobi,geektutor,https://gitlab.com/geektutor/booust, https://gitlab.com/geektutor/week5,,,,,,
EHIDIAMEN,IMADEGBOR, @imadehidiame,https://gitlab.com/imadehidiame/week-five.git,,,,,,,
Adetola,Akere,tolaked,https://gitlab.com/tolaked/array_project.git,https://gitlab.com/tolaked/my-film-website.git,https://my-film-website.herokuapp.com/index.html,,,,,
Samuel Olumide,Oluwole,Lummy,https://gitlab.com/Lummy/Week-Two-Project.git, https://gitlab.com/Lummy/week-five.git,,,,,,
Obisanya, Babatunde, @tundesanya, https://gitlab.com/tundesanya/firstProject.git, Athens, https://gitlab.com/tundesanya/week-five.git,,,,,
